<?xml version="1.0"?>
<svg xmlns="http://www.w3.org/2000/svg" xmlns:xlink="http://www.w3.org/1999/xlink" version="1.1" id="Capa_1" x="0px" y="0px" viewBox="0 0 512 512" style="enable-background:new 0 0 512 512;" xml:space="preserve" width="512px" height="512px"><g><g>
	<g>
		<path d="M231.151,447.3c-4.142,0-7.5,3.357-7.5,7.5v8.284c0,4.142,3.358,7.5,7.5,7.5c4.142,0,7.5-3.358,7.5-7.5V454.8    C238.651,450.657,235.293,447.3,231.151,447.3z" data-original="#000000" class="active-path" data-old_color="#000000" fill="#FFFFFF"/>
	</g>
</g><g>
	<g>
		<path d="M280.849,447.3c-4.142,0-7.5,3.357-7.5,7.5v8.284c0,4.142,3.358,7.5,7.5,7.5c4.142,0,7.5-3.358,7.5-7.5V454.8    C288.349,450.657,284.991,447.3,280.849,447.3z" data-original="#000000" class="active-path" data-old_color="#000000" fill="#FFFFFF"/>
	</g>
</g><g>
	<g>
		<path d="M272.566,20.709c-4.142,0-7.5,3.357-7.5,7.5v13.206h-18.132V28.209c0-4.143-3.358-7.5-7.5-7.5c-4.142,0-7.5,3.357-7.5,7.5    v20.667c0,0.013-0.002,0.026-0.002,0.039s0.002,0.026,0.002,0.039v20.671c0,4.143,3.358,7.5,7.5,7.5c4.142,0,7.5-3.357,7.5-7.5    v-13.21h18.132v13.21c0,4.143,3.358,7.5,7.5,7.5c4.142,0,7.5-3.357,7.5-7.5V28.209C280.066,24.066,276.708,20.709,272.566,20.709z    " data-original="#000000" class="active-path" data-old_color="#000000" fill="#FFFFFF"/>
	</g>
</g><g>
	<g>
		<path d="M487.934,248.498h-91.9V123.465c0-4.143-3.358-7.5-7.5-7.5h-0.784V97.833h9.067c4.142,0,7.5-3.357,7.5-7.5V57.198    c0-4.143-3.358-7.5-7.5-7.5h-91.899V7.5c0-4.143-3.358-7.5-7.5-7.5h-82.835c-4.142,0-7.5,3.357-7.5,7.5v42.198h-91.899    c-4.142,0-7.5,3.357-7.5,7.5v33.135c0,4.143,3.358,7.5,7.5,7.5h9.067v18.132h-0.784c-4.142,0-7.5,3.357-7.5,7.5v66.267    c0,4.143,3.358,7.5,7.5,7.5c4.142,0,7.5-3.357,7.5-7.5v-58.767h250.067v125.014c0,0.007-0.001,0.013-0.001,0.019    c0,0.007,0.001,0.013,0.001,0.019v165.628c0,0.007-0.001,0.013-0.001,0.019c0,0.006,0.001,0.013,0.001,0.019V497h-26.417v-18.138    h4.925c4.142,0,7.5-3.357,7.5-7.5v-49.697c0-4.143-3.358-7.5-7.5-7.5h-24.85c-4.142,0-7.5,3.357-7.5,7.5v49.697    c0,4.143,3.358,7.5,7.5,7.5h4.925V497H313.2v-84.4h9.067c4.142,0,7.5-3.357,7.5-7.5v-33.134c0-4.143-3.358-7.5-7.5-7.5H189.735    c-4.142,0-7.5,3.357-7.5,7.5V405.1c0,4.143,3.358,7.5,7.5,7.5h9.066V497h-26.417v-18.138h4.925c4.142,0,7.5-3.357,7.5-7.5v-49.697    c0-4.143-3.358-7.5-7.5-7.5h-24.85c-4.142,0-7.5,3.357-7.5,7.5v49.697c0,4.143,3.358,7.5,7.5,7.5h4.925V497h-26.417V219.7    c0-4.143-3.358-7.5-7.5-7.5c-4.142,0-7.5,3.357-7.5,7.5v28.798H24.066c-4.142,0-7.5,3.357-7.5,7.5v165.667    c0,4.143,3.358,7.5,7.5,7.5h9.067V504.5c0,4.143,3.358,7.5,7.5,7.5h82.833H206.3h99.4h82.834h82.833c4.142,0,7.5-3.357,7.5-7.5    v-75.335h9.067c4.142,0,7.5-3.357,7.5-7.5V255.998C495.434,251.855,492.076,248.498,487.934,248.498z M115.966,497H48.133v-67.835    h67.833V497z M115.967,414.165H31.566V263.498h84.401V414.165z M169.809,463.862h-9.85v-34.697h9.85V463.862z M248.242,497    h-34.441v-84.4h34.441V497z M298.2,497h-34.959v-84.4H298.2V497z M206.301,397.6h-9.066v-18.134h117.533V397.6H305.7H206.301z     M352.042,463.862h-9.85v-34.697h9.85V463.862z M222.083,15h67.835v42.179c0,0.006-0.001,0.013-0.001,0.019    s0.001,0.013,0.001,0.019v25.615h-67.835V15z M131.75,82.831c-0.013,0-0.026,0.002-0.039,0.002h-9.028V64.698h0.001h84.399v18.135    h-75.294C131.776,82.833,131.763,82.831,131.75,82.831z M372.75,115.965H139.251V97.833h75.313c0.007,0,0.013,0.001,0.019,0.001    h82.835c0.007,0,0.013-0.001,0.019-0.001h75.313V115.965z M380.289,82.833c-0.013,0-0.026-0.002-0.039-0.002    s-0.026,0.002-0.039,0.002h-75.293V64.698h84.399v18.135H380.289z M463.867,497h-67.833v-67.835h67.833V497z M480.434,414.165    h-84.4V263.498h84.4V414.165z" data-original="#000000" class="active-path" data-old_color="#000000" fill="#FFFFFF"/>
	</g>
</g><g>
	<g>
		<path d="M90.332,281.632H57.199c-4.142,0-7.5,3.357-7.5,7.5v33.134c0,4.142,3.358,7.5,7.5,7.5h33.133c4.142,0,7.5-3.357,7.5-7.5    v-33.134C97.832,284.989,94.474,281.632,90.332,281.632z M82.832,314.766H64.699v-18.134h18.133V314.766z" data-original="#000000" class="active-path" data-old_color="#000000" fill="#FFFFFF"/>
	</g>
</g><g>
	<g>
		<path d="M189.732,281.632h-33.133c-4.142,0-7.5,3.357-7.5,7.5v33.134c0,4.143,3.358,7.5,7.5,7.5h33.133c4.142,0,7.5-3.357,7.5-7.5    v-33.134C197.232,284.989,193.874,281.632,189.732,281.632z M182.232,314.766h-18.133v-18.134h18.133V314.766z" data-original="#000000" class="active-path" data-old_color="#000000" fill="#FFFFFF"/>
	</g>
</g><g>
	<g>
		<path d="M355.4,281.632h-33.133c-4.142,0-7.5,3.357-7.5,7.5v33.134h-0.001c0,4.143,3.358,7.5,7.5,7.5H355.4    c4.142,0,7.5-3.357,7.5-7.5v-33.134C362.9,284.989,359.542,281.632,355.4,281.632z M347.9,314.766h-18.133v-18.134H347.9V314.766z    " data-original="#000000" class="active-path" data-old_color="#000000" fill="#FFFFFF"/>
	</g>
</g><g>
	<g>
		<path d="M272.309,281.632h-33.134c-4.142,0-7.5,3.357-7.5,7.5v33.134c0,4.143,3.358,7.5,7.5,7.5h33.134c4.142,0,7.5-3.357,7.5-7.5    v-33.134C279.809,284.989,276.451,281.632,272.309,281.632z M264.809,314.766h-18.134v-18.134h18.134V314.766z" data-original="#000000" class="active-path" data-old_color="#000000" fill="#FFFFFF"/>
	</g>
</g><g>
	<g>
		<path d="M189.732,215.365h-33.133c-4.142,0-7.5,3.357-7.5,7.5v33.133c0,4.143,3.358,7.5,7.5,7.5h33.133c4.142,0,7.5-3.357,7.5-7.5    v-33.133C197.232,218.722,193.874,215.365,189.732,215.365z M182.232,248.498h-18.133v-18.133h18.133V248.498z" data-original="#000000" class="active-path" data-old_color="#000000" fill="#FFFFFF"/>
	</g>
</g><g>
	<g>
		<path d="M355.4,215.365h-33.133c-4.142,0-7.5,3.357-7.5,7.5v33.133h-0.001c0,4.143,3.358,7.5,7.5,7.5H355.4    c4.142,0,7.5-3.357,7.5-7.5v-33.133C362.9,218.722,359.542,215.365,355.4,215.365z M347.9,248.498h-18.133v-18.133H347.9V248.498z    " data-original="#000000" class="active-path" data-old_color="#000000" fill="#FFFFFF"/>
	</g>
</g><g>
	<g>
		<path d="M272.309,215.365h-33.134c-4.142,0-7.5,3.357-7.5,7.5v33.133c0,4.143,3.358,7.5,7.5,7.5h33.134c4.142,0,7.5-3.357,7.5-7.5    v-33.133C279.809,218.722,276.451,215.365,272.309,215.365z M264.809,248.498h-18.134v-18.133h18.134V248.498z" data-original="#000000" class="active-path" data-old_color="#000000" fill="#FFFFFF"/>
	</g>
</g><g>
	<g>
		<path d="M189.732,149.097h-33.133c-4.142,0-7.5,3.357-7.5,7.5v33.134c0,4.143,3.358,7.5,7.5,7.5h33.133c4.142,0,7.5-3.357,7.5-7.5    v-33.134C197.232,152.454,193.874,149.097,189.732,149.097z M182.232,182.232h-18.133v-18.134h18.133V182.232z" data-original="#000000" class="active-path" data-old_color="#000000" fill="#FFFFFF"/>
	</g>
</g><g>
	<g>
		<path d="M355.4,149.097h-33.133c-4.142,0-7.5,3.357-7.5,7.5v33.134c-0.001,4.143,3.357,7.5,7.499,7.5H355.4    c4.142,0,7.5-3.357,7.5-7.5v-33.134C362.9,152.454,359.542,149.097,355.4,149.097z M347.9,182.232h-18.133v-18.134H347.9V182.232z    " data-original="#000000" class="active-path" data-old_color="#000000" fill="#FFFFFF"/>
	</g>
</g><g>
	<g>
		<path d="M272.309,149.097h-33.134c-4.142,0-7.5,3.357-7.5,7.5v33.134c0,4.143,3.357,7.5,7.5,7.5h33.134c4.142,0,7.5-3.357,7.5-7.5    v-33.134C279.809,152.454,276.451,149.097,272.309,149.097z M264.809,182.232h-18.134v-18.134h18.134V182.232z" data-original="#000000" class="active-path" data-old_color="#000000" fill="#FFFFFF"/>
	</g>
</g><g>
	<g>
		<path d="M454.8,281.632h-33.133c-4.142,0-7.5,3.357-7.5,7.5v33.134c0,4.142,3.358,7.5,7.5,7.5H454.8c4.142,0,7.5-3.357,7.5-7.5    v-33.134C462.3,284.989,458.942,281.632,454.8,281.632z M447.3,314.766h-18.133v-18.134H447.3V314.766z" data-original="#000000" class="active-path" data-old_color="#000000" fill="#FFFFFF"/>
	</g>
</g><g>
	<g>
		<path d="M90.332,347.898H57.199c-4.142,0-7.5,3.357-7.5,7.5v33.134c0,4.143,3.358,7.5,7.5,7.5h33.133c4.142,0,7.5-3.357,7.5-7.5    v-33.134C97.832,351.255,94.474,347.898,90.332,347.898z M82.832,381.032H64.699v-18.134h18.133V381.032z" data-original="#000000" class="active-path" data-old_color="#000000" fill="#FFFFFF"/>
	</g>
</g><g>
	<g>
		<path d="M454.8,347.898h-33.133c-4.142,0-7.5,3.357-7.5,7.5v33.134c0,4.143,3.358,7.5,7.5,7.5H454.8c4.142,0,7.5-3.357,7.5-7.5    v-33.134C462.3,351.255,458.942,347.898,454.8,347.898z M447.3,381.032h-18.133v-18.134H447.3V381.032z" data-original="#000000" class="active-path" data-old_color="#000000" fill="#FFFFFF"/>
	</g>
</g></g> </svg>
